Big Mart Sales Data Analysis, Visualization, Modelling
…
Im curious to see what the Others category looks like

data %>%
        filter(Item_Type == 'Others') %>%
        do(head(.))

## # A tibble: 180 x 14
## # Groups:   Item_Identifier [30]
##    Item_Identifier Item_Weight Item_Fat_Content Item_Visibility Item_Type
##    <chr>                 <dbl> <chr>                      <dbl> <chr>    
##  1 NCI31                  20.0 Low Fat                   0.0817 Others   
##  2 NCI31                  20.0 Low Fat                   0.0815 Others   
##  3 NCI31                  20.0 low fat                   0.136  Others   
##  4 NCI31                  20.0 Low Fat                   0.0815 Others   
##  5 NCI31                  12.6 Low Fat                   0.0809 Others   
##  6 NCI31                  20.0 Low Fat                   0.0813 Others   
##  7 NCJ19                  18.6 LF                        0.118  Others   
##  8 NCJ19                  18.6 Low Fat                   0.118  Others   
##  9 NCJ19                  18.6 Low Fat                   0.198  Others   
## 10 NCJ19                  12.6 Low Fat                   0.118  Others   
## # ... with 170 more rows, and 9 more variables: Item_MRP <dbl>,
## #   Outlet_Identifier <chr>, Outlet_Establishment_Year <int>,
## #   Outlet_Size <chr>, Outlet_Location_Type <chr>, Outlet_Type <chr>,
## #   Item_Outlet_Sales <dbl>, source <chr>, Item_Visibility_MeanRatio <dbl>
…
